<?xml version="1.0" encoding="UTF-8"?>
<kml xmlns="http://www.opengis.net/kml/2.2" xmlns:gx="http://www.google.com/kml/ext/2.2" xmlns:kml="http://www.opengis.net/kml/2.2" xmlns:atom="http://www.w3.org/2005/Atom">
<Document>
	<name>Jordan.kml</name>
	<StyleMap id="msn_ylw-pushpin">
		<Pair>
			<key>normal</key>
			<styleUrl>#sn_ylw-pushpin</styleUrl>
		</Pair>
		<Pair>
			<key>highlight</key>
			<styleUrl>#sh_ylw-pushpin</styleUrl>
		</Pair>
	</StyleMap>
	<Style id="sn_ylw-pushpin">
		<IconStyle>
			<scale>1.1</scale>
			<Icon>
				<href>http://maps.google.com/mapfiles/kml/pushpin/ylw-pushpin.png</href>
			</Icon>
			<hotSpot x="20" y="2" xunits="pixels" yunits="pixels"/>
		</IconStyle>
		<BalloonStyle>
		</BalloonStyle>
		<LineStyle>
			<color>fff6f800</color>
		</LineStyle>
	</Style>
	<Style id="sh_ylw-pushpin">
		<IconStyle>
			<scale>1.3</scale>
			<Icon>
				<href>http://maps.google.com/mapfiles/kml/pushpin/ylw-pushpin.png</href>
			</Icon>
			<hotSpot x="20" y="2" xunits="pixels" yunits="pixels"/>
		</IconStyle>
		<BalloonStyle>
		</BalloonStyle>
		<LineStyle>
			<color>fff6f800</color>
		</LineStyle>
	</Style>
	<Placemark>
		<name>Jordan</name>
		<styleUrl>#msn_ylw-pushpin</styleUrl>
		<LineString>
			<tessellate>1</tessellate>
			<coordinates>
				35.57753127659726,32.71048641834396,0 35.57428256451069,32.71140332197839,0 35.57103011129256,32.70928048582626,0 35.56856269292971,32.70873063351529,0 35.56767086382105,32.70281037263872,0 35.56302220811611,32.70183110714858,0 35.56639173302194,32.69926472815818,0 35.56653202792286,32.69628222832633,0 35.56873003524062,32.69111379923132,0 35.56976086686558,32.68675078312759,0 35.56733370837473,32.68697865376923,0 35.5673281538139,32.68871922737753,0 35.56284521387015,32.68961100192757,0 35.55841365010916,32.68473958703555,0 35.5623910775841,32.68137461891787,0 35.55847770352871,32.67838169469053,0 35.55674465261469,32.6745396972625,0 35.56006137099205,32.67154812991055,0 35.56502326126731,32.66382803579852,0 35.56504366260451,32.65975140381895,0 35.56655477844749,32.65704210024415,0 35.56942819806495,32.65495923943614,0 35.56819256252814,32.65094284530502,0 35.56497739879661,32.64818541977933,0 35.56113247918779,32.64583023216536,0 35.56777490021896,32.64388208113407,0 35.5676544361289,32.64029077008521,0 35.56234982726096,32.63897374082057,0 35.56055325186934,32.63697406157492,0 35.56792851286379,32.63416114789947,0 35.56639547899342,32.63007720051333,0 35.56344114949084,32.62953967300685,0 35.56180769640645,32.62428130055545,0 35.56680726303918,32.62218659310734,0 35.57305453954521,32.61285993800306,0 35.57228703910751,32.60624027453729,0 35.56711842674968,32.6041393142564,0 35.56726749160558,32.59634566906871,0 35.57152658481263,32.59779588670632,0 35.578041271846,32.5969309546315,0 35.57625870153664,32.58995649809019,0 35.57697529513952,32.58335438160167,0 35.57832158850895,32.58038108130043,0 35.57696873943215,32.5730412021112,0 35.57616343000456,32.56594068901529,0 35.57487707569669,32.56572583080714,0 35.57114941448678,32.56695827886942,0 35.5702493595544,32.56486460197998,0 35.57740249858736,32.55694327045951,0 35.57585913314689,32.55412456557377,0 35.57699302587294,32.55152213326444,0 35.57304771841561,32.54949019281575,0 35.57114434145883,32.55230420736775,0 35.56822202137642,32.5500496132397,0 35.57228197487717,32.54627096480012,0 35.56975073343067,32.54392847994928,0 35.57151832300821,32.54051335670298,0 35.5658501717738,32.53894534911839,0 35.56418062812415,32.54534139811594,0 35.56101664097783,32.54524758477118,0 35.56319833576516,32.54012284206408,0 35.56056562878092,32.5382253945623,0 35.55911850158271,32.53117722079759,0 35.56287601616501,32.53095320128015,0 35.56365056660393,32.52667279248493,0 35.56714264446482,32.52697134102328,0 35.56566645853996,32.52159003445275,0 35.5598339378736,32.52068389971278,0 35.55474173225191,32.52070256994797,0 35.55552252531651,32.51771854197448,0 35.55246110010078,32.51517036971451,0 35.56043385841368,32.50793023881499,0 35.56112354828338,32.5143229198026,0 35.56310104708965,32.51421380629588,0 35.56449204004076,32.50761317925448,0 35.56181293321624,32.50409873606823,0 35.5578947344979,32.5037104749284,0 35.55962688289208,32.50180094410495,0 35.56411377978343,32.50179616530164,0 35.56645525835138,32.49776531420661,0 35.57019659239536,32.4994196572784,0 35.57625428355716,32.49660731606632,0 35.58094679900832,32.48742732252938,0 35.57787528064181,32.48733172242698,0 35.57517498899814,32.48384718730401,0 35.56981459705516,32.48387104329658,0 35.56561150801764,32.48127878723155,0 35.56968939124911,32.47833631523637,0 35.56930967357781,32.47617994789707,0 35.56500000902922,32.47501443627997,0 35.56438265139852,32.47137096485063,0 35.56729050561406,32.4713587859323,0 35.56817835249988,32.46953973748052,0 35.56553576873841,32.46720886753685,0 35.56313478189643,32.46838865258773,0 35.56253524529085,32.46319562510287,0 35.56505435271257,32.46160335601291,0 35.57107640024485,32.46147375399562,0 35.57432879937576,32.45872814983572,0 35.5711968732281,32.45497613967131,0 35.57082133115586,32.45258384054732,0 35.56645742633658,32.4538486794269,0 35.56647963070088,32.44629405277897,0 35.56759830785015,32.44485111355328,0 35.56464114096084,32.44148324810083,0 35.56723425804947,32.44167804036184,0 35.56884049834854,32.44116160437143,0 35.56540686415359,32.43497776022382,0 35.56087134237318,32.43347893934017,0 35.55838890093617,32.43641930299453,0 35.55575465311849,32.43007595478304,0 35.55861419293347,32.42656267722963,0 35.56245331412946,32.42420565050703,0 35.55538207022811,32.42579659515416,0 35.55267703465339,32.42636653512326,0 35.55135797483192,32.4205955615713,0 35.55339818135645,32.41826783242519,0 35.55879394575627,32.41923658876033,0 35.55657600994682,32.41517504592698,0 35.56126003716829,32.41132650118212,0 35.55806860410413,32.41101323057426,0 35.55931320126856,32.4082884411512,0 35.55841578754057,32.40764128736574,0 35.56113425597545,32.40137013623202,0 35.55416445811441,32.40011136036321,0 35.55430663868589,32.40225847261043,0 35.55114751864787,32.40377923434808,0 35.54695814367264,32.40121394833427,0 35.55072732576745,32.39510571374304,0 35.54996261770938,32.39287830806106,0 35.5550907961189,32.38947397675754,0 35.55459241955872,32.38989797268623,0 35.55446777287684,32.3900040158307,0 35.55589351524245,32.3888302833407,0 35.55868718151571,32.38577885935899,0 35.56352895537175,32.38345691112136,0 35.56161600865786,32.3803371592134,0 35.55889224602608,32.38170098043,0 35.55923667911245,32.37909958846178,0 35.56083254842795,32.37743495224024,0 35.56258431030236,32.3783606439673,0 35.56376640080936,32.37709091530218,0 35.56431307128365,32.37064012475632,0 35.56166317218272,32.36522857141858,0 35.56089794691057,32.36310161934709,0 35.55810323429967,32.36595291637535,0 35.55663658762398,32.36707788900097,0 35.55355207118771,32.3664779266417,0 35.55438792602733,32.3630234678493,0 35.5537565695365,32.36060043793503,0 35.55459582630956,32.35818145573671,0 35.55748238321983,32.35678561008449,0 35.55512586868047,32.3550607203376,0 35.56006902102996,32.34809764741765,0 35.55379107687297,32.34360947979955,0 35.55732913664163,32.33125672099703,0 35.55423696148983,32.33021295582365,0 35.55519746963564,32.32572967169868,0 35.55281772426833,32.32304493108352,0 35.55342284262793,32.32087516808773,0 35.55578692418882,32.32210405811056,0 35.55750233020262,32.32013919568278,0 35.56047301484914,32.31786325091963,0 35.56219700815009,32.3121578627619,0 35.56434077564306,32.30949584327081,0 35.5602602901763,32.30536970474269,0 35.56074340414063,32.30388696653551,0 35.5567080302663,32.30147752821172,0 35.5554228712689,32.29759939778926,0 35.55977310446015,32.29622369953363,0 35.5634739669442,32.29370835424061,0 35.56625733398671,32.28924096113599,0 35.56800842853659,32.28347621716208,0 35.56757680100701,32.28117435385665,0 35.56349628519305,32.27880122221505,0 35.56306426704271,32.27454856234355,0 35.55916503299467,32.27383929443347,0 35.55776224756945,32.27330302272542,0 35.55861206413834,32.26983950944133,0 35.55989896738513,32.26783843700369,0 35.55907994477432,32.2655192942614,0 35.5604905238768,32.26394095927407,0 35.5637350291181,32.26314087321798,0 35.56439554657415,32.25852978460721,0 35.56245016083209,32.25654609821493,0 35.56260149800918,32.25145326958918,0 35.56560088536109,32.2489472684971,0 35.5660276617503,32.25092166801137,0 35.56947044016327,32.25176672517703,0 35.57137054218839,32.25055367818606,0 35.57111570059052,32.24695079196972,0 35.56909972720798,32.24678844176318,0 35.56846385128181,32.24439663430686,0 35.56863867045161,32.2424334819938,0 35.56721424863107,32.2409918089153,0 35.56391217393404,32.24194259402638,0 35.56281787410846,32.24297017513189,0 35.56119257519826,32.24110266295983,0 35.56417897751566,32.23879470162112,0 35.56294538859109,32.23583297552599,0 35.562294412326,32.23077139406828,0 35.56476026366612,32.22815572870884,0 35.56756803449831,32.22948824848979,0 35.57166424634485,32.22997588739062,0 35.57263272945823,32.22812376160801,0 35.56941621043764,32.22612481234594,0 35.56680099310145,32.22396037032571,0 35.56786785914988,32.22150957784473,0 35.56660926475423,32.21954283996729,0 35.566844000797,32.21826856757848,0 35.5677702477962,32.21808760247151,0 35.56931368680108,32.2166308393918,0 35.56970673410399,32.21566839114777,0 35.56931093366676,32.21506014917908,0 35.56885163714952,32.21340173083021,0 35.56962511335782,32.2129708088917,0 35.57144890734526,32.21336681586948,0 35.57350415609756,32.21283595338623,0 35.57407966700195,32.21098630397881,0 35.57304956197736,32.21009404337902,0 35.57159626104836,32.20982608025915,0 35.57112239249096,32.21028496809593,0 35.57115403523053,32.21090594365224,0 35.57003615801761,32.21142024357248,0 35.56899493066238,32.21193755394043,0 35.56788958695242,32.21149886502607,0 35.56672949711307,32.2096634871681,0 35.56690820977653,32.20907377803614,0 35.56769369698509,32.20866549097877,0 35.5676708341256,32.2076490432735,0 35.56700451883834,32.20735801175957,0 35.56672044736409,32.20669417332837,0 35.56579023383836,32.20632841397091,0 35.5653459506803,32.20646265334054,0 35.56311126275989,32.20497963790257,0 35.56296349735778,32.20433331630272,0 35.56305043040452,32.20272411369962,0 35.56380761968224,32.20272063603766,0 35.56504809374101,32.20180944362536,0 35.56509551411232,32.20101254215599,0 35.56571441030115,32.20012260909127,0 35.56566690139871,32.19900295527799,0 35.56712257937127,32.19696710065215,0 35.56777753241233,32.19724780612021,0 35.56926673626017,32.19717056662975,0 35.56983569599929,32.19797587599221,0 35.57033680716057,32.19657725509811,0 35.56983008387564,32.19587843876,0 35.56996380026307,32.19511386332172,0 35.56899799935208,32.19383769400952,0 35.56896853590246,32.19307055355009,0 35.56985406183514,32.19259965403127,0 35.57038424380898,32.19171721643205,0 35.56886054929448,32.19077502724144,0 35.56851328487463,32.18926860381196,0 35.56788552958877,32.18891152655925,0 35.56772232992736,32.18934970095513,0 35.56652613527841,32.18843168351307,0 35.56650042214011,32.18726614393154,0 35.56446230300349,32.18672359178596,0 35.5640622573626,32.18742844376125,0 35.56322083160285,32.18814134803122,0 35.5625478151508,32.18901363490245,0 35.56213306622318,32.18994578404785,0 35.56115715790778,32.19013250457389,0 35.56050625504847,32.19018770414267,0 35.55925624972742,32.18918340315516,0 35.55861662046892,32.18890361179318,0 35.55848226945263,32.18730269534256,0 35.55886577897488,32.18585323529291,0 35.55998691278927,32.18599685178004,0 35.56235572479268,32.18434237642457,0 35.56258509600704,32.18361583545596,0 35.56210505696929,32.18294645692802,0 35.56216301078879,32.18261256164893,0 35.5612383000352,32.18188244770321,0 35.56053138716948,32.18216873042211,0 35.55916255376671,32.18044253024468,0 35.55873672135286,32.1796608377038,0 35.55925049073937,32.17834158919359,0 35.55929939188846,32.17678534597827,0 35.55880629756663,32.17631855885605,0 35.55936279327786,32.17559134836276,0 35.56020470997404,32.17425814424364,0 35.56016322608048,32.1734506673632,0 35.55924153203861,32.17295393853384,0 35.55863980651808,32.17308156777109,0 35.5586836382053,32.17343221245911,0 35.55730232313509,32.17374035023506,0 35.55662333188769,32.17435059772365,0 35.55559296695323,32.175171830422,0 35.55555843603273,32.17620393281481,0 35.55520905094599,32.17641348275111,0 35.55468853669243,32.17701655553997,0 35.55368081336882,32.17699512428969,0 35.55281525934733,32.17611297923489,0 35.55300724627132,32.1743924315558,0 35.5527610922171,32.17255918249802,0 35.55217644939061,32.17040302246205,0 35.5533126722428,32.17010820175066,0 35.5546789065837,32.1701989707526,0 35.55552327209139,32.17102058931069,0 35.55712997477813,32.17035775833688,0 35.55774397003758,32.16853675555445,0 35.55710557063464,32.1671553064841,0 35.5566906218836,32.16639307300063,0 35.5559976041875,32.16644192015275,0 35.55531213880631,32.16683752671997,0 35.55442326350032,32.16698021231394,0 35.55346774812421,32.16633674443722,0 35.5528768185239,32.16680438542627,0 35.55301478816739,32.16737278927361,0 35.55166554784348,32.16761298452045,0 35.55098474810486,32.16753811130673,0 35.55055104655325,32.16795723660286,0 35.55038367542301,32.16845601340826,0 35.5501483138535,32.1685623392703,0 35.5497571087377,32.16824892574138,0 35.54937562718,32.16851336641178,0 35.54895818062681,32.16835764807964,0 35.54936544860939,32.16780612200426,0 35.54897706903814,32.16746946658638,0 35.54782118207083,32.16649306845601,0 35.5487818136832,32.1658235193967,0 35.55071248305218,32.16465089598121,0 35.55198624370075,32.16362146654807,0 35.55173259460593,32.16185481500952,0 35.55077217181485,32.16103709956126,0 35.54940712315295,32.16085061554114,0 35.54984687220146,32.16008456685405,0 35.55121840945143,32.15967588396268,0 35.55206394583772,32.15971973576834,0 35.55253553641025,32.16033534042941,0 35.55551438441084,32.1595165283906,0 35.55665941278198,32.15986658099694,0 35.55797658975789,32.15936493099858,0 35.5585244743837,32.15840267016133,0 35.55806204023025,32.15817211823518,0 35.55832153872668,32.15635831541046,0 35.55875474565045,32.15589151507062,0 35.55810252959679,32.15497967878605,0 35.55763030132216,32.15533073729677,0 35.55608739191597,32.15411046965625,0 35.55586887586655,32.15303176567959,0 35.55636226122326,32.15222205267328,0 35.55656154432913,32.15170429691219,0 35.56022451615129,32.15148144349307,0 35.56082622650512,32.15111973088398,0 35.56066445153554,32.15071215515865,0 35.56000593280961,32.15023284145013,0 35.55913465467473,32.14831000570426,0 35.55837015498184,32.14764817278152,0 35.55872947212072,32.14715730915298,0 35.55823265543969,32.14669729521702,0 35.55858778092928,32.14611570094355,0 35.55819741072798,32.14523106213814,0 35.55771687253412,32.14520925124506,0 35.55777452445478,32.14395640001339,0 35.55637539919923,32.14410296296702,0 35.5543836125409,32.14371259777836,0 35.55334669746595,32.14395097401763,0 35.55316946720787,32.14525201677182,0 35.55233872053116,32.1461903508462,0 35.55035922026286,32.14576579450164,0 35.55020896506915,32.1449787127393,0 35.55013515735709,32.14347281997924,0 35.54970182639826,32.14298638365939,0 35.54918134631043,32.14183793569486,0 35.54784777328893,32.14172893000467,0 35.54757988702642,32.14259846264494,0 35.54670693827619,32.14331967151409,0 35.54570992091183,32.14420914667758,0 35.5445818088813,32.14306349587711,0 35.54385906550451,32.14243107091214,0 35.54384613318145,32.14119946972883,0 35.54339023103086,32.1395271335295,0 35.54484619648369,32.13747990351193,0 35.54659418665909,32.13494818209626,0 35.54842675124733,32.13457937424687,0 35.55014622904496,32.13495745453163,0 35.55129952877439,32.13425575547972,0 35.55096828193487,32.13337659911441,0 35.54903200251152,32.13284185820535,0 35.54809872621459,32.13263425728411,0 35.54686986644047,32.13182236875553,0 35.54583754463147,32.13178000946598,0 35.54555341272157,32.13026387282309,0 35.54658535758885,32.12967011199594,0 35.54892012258867,32.12961606182336,0 35.55044917197028,32.12942978295204,0 35.55122680959042,32.12863723525117,0 35.5504869468086,32.12716741468093,0 35.54945468308482,32.12625733643169,0 35.54854693381618,32.12599437570876,0 35.54815571304569,32.12509349771879,0 35.54928535266171,32.12372580402501,0 35.54921470518389,32.12276991572624,0 35.54609170415852,32.11980471322889,0 35.54495756598217,32.11921642611951,0 35.54404071907194,32.11710501053882,0 35.54354634235671,32.11582106673146,0 35.54228025251518,32.1154724940032,0 35.54227887344483,32.11476979771449,0 35.54176933905647,32.11420351507712,0 35.54132200111172,32.11228728430902,0 35.54099286960884,32.11231558319016,0 35.53840916653997,32.10992890073165,0 35.53706434243506,32.10846603792343,0 35.53664360889265,32.10849135162334,0 35.53564288131185,32.10803727683251,0 35.53418641815643,32.10822171405322,0 35.53278648980001,32.10756844425237,0 35.53255650630314,32.10673987995553,0 35.5335951565178,32.1057903783537,0 35.53505600678993,32.10291712767712,0 35.53580369538085,32.10035272297164,0 35.53560064498146,32.09982328572719,0 35.53741087141493,32.09811178653815,0 35.53876598423698,32.09609149887579,0 35.53942481982547,32.09473603733748,0 35.53860291851122,32.09386697624297,0 35.539463211236,32.09269667147461,0 35.54009814326551,32.09194187061969,0 35.54189677591547,32.09156066730787,0 35.54259946423872,32.09076661635255,0 35.54360422280135,32.09034520304083,0 35.54377355532004,32.089443852852,0 35.54314753738113,32.08673234408937,0 35.54409089548338,32.08462592675903,0 35.54510587520763,32.0838279130172,0 35.54507020397642,32.08344902385531,0 35.54541931275373,32.08288206570047,0 35.54607130445304,32.08279850719523,0 35.54605408539574,32.08218430581787,0 35.54511851047477,32.08160520240833,0 35.54381346816604,32.08163774798529,0 35.54214944399415,32.08109193989302,0 35.54061044091725,32.08112535168879,0 35.53982809682157,32.08010985765006,0 35.54015485008058,32.07948727003465,0 35.53973152532444,32.07918032631506,0 35.53905967350031,32.0792347414748,0 35.53816450018258,32.07872613643041,0 35.53851617659295,32.07788554553481,0 35.53864977119419,32.07670435054546,0 35.53838349663991,32.07563984796109,0 35.53719220058326,32.07505597161298,0 35.53571998868775,32.07589773976818,0 35.53517843864464,32.07622179356235,0 35.53417500702409,32.07679845133003,0 35.53347942990619,32.07620420960576,0 35.53298934976294,32.07502457603435,0 35.53352861485872,32.07397798504203,0 35.53497477676142,32.07377926974559,0 35.53639666928389,32.07262617959137,0 35.53510643316872,32.07096337757653,0 35.53511260656797,32.0693977210604,0 35.53438763960054,32.06862896923734,0 35.53364560363111,32.06858655026294,0 35.53362015911811,32.06903930554673,0 35.53323439003991,32.0689953510003,0 35.53179986146672,32.06931891730087,0 35.5305925614761,32.06882378063982,0 35.53025115310484,32.06785750343346,0 35.53089032275173,32.06707640038457,0 35.53133008967597,32.06581925510937,0 35.53124740905106,32.0651380227615,0 35.5304250587805,32.06477697376278,0 35.52941805051443,32.06498980598782,0 35.52857719628892,32.06437027580984,0 35.52922255516654,32.06174348126851,0 35.53096688424276,32.06116122731551,0 35.53151952626141,32.06061281988324,0 35.53080463183941,32.0602701882631,0 35.53005022507335,32.05905052953288,0 35.52876091966885,32.058186429938,0 35.52867565049487,32.0570892311636,0 35.52951069154338,32.05619041616853,0 35.53063764165633,32.05567214175097,0 35.53067459044835,32.05499955371961,0 35.52868239556883,32.05466140690286,0 35.52812021610707,32.05397660417632,0 35.52896329616505,32.05225960053923,0 35.53003274214247,32.05093784877202,0 35.52906779554302,32.04990151237514,0 35.52737218549893,32.04903054320248,0 35.52618139785994,32.04956143671465,0 35.52591638902135,32.05019297139217,0 35.52406509072162,32.05053065728389,0 35.52289234665297,32.05018062118169,0 35.52279520722239,32.04827935318662,0 35.52186761270813,32.04776528544325,0 35.52046246343933,32.04764818745727,0 35.51920160372483,32.04804711252519,0 35.51945955670976,32.0465305323391,0 35.51957230771298,32.04549521949157,0 35.51912139011436,32.04468790080807,0 35.52027127883049,32.04404672715498,0 35.52108345636863,32.04402014641319,0 35.52117263070724,32.04449081850649,0 35.52235706648,32.04474646376736,0 35.52390978826589,32.04393893894795,0 35.52347754652313,32.04344948409764,0 35.52337884295401,32.04284594238431,0 35.52215879070307,32.0414284166316,0 35.52082870585311,32.04061895302494,0 35.52064054779683,32.04024804314636,0 35.52111477158952,32.03906349082126,0 35.51915411950028,32.03604038852659,0 35.5188296029619,32.03533288491821,0 35.52053406802823,32.03397647835455,0 35.52107436039913,32.03239370951887,0 35.52219201948927,32.03153485273243,0 35.52139536551362,32.03022399878592,0 35.52090475410758,32.02988230905785,0 35.52124280873257,32.02944114414289,0 35.5228395783058,32.02941032857626,0 35.52359037448574,32.02867984344452,0 35.52311115263078,32.02642002112697,0 35.52170985667331,32.02447679831724,0 35.52196314043292,32.02309008952815,0 35.52273042382676,32.02181410016618,0 35.52374211445358,32.02194737816334,0 35.52456645896235,32.02097242942584,0 35.52479874434739,32.01971149428619,0 35.52656730640756,32.02022120840594,0 35.52853082497953,32.01966665519866,0 35.52922810501474,32.01871751485332,0 35.52885175873202,32.01683190780744,0 35.52711534003056,32.01579444581333,0 35.52499979182232,32.01590783465414,0 35.52404277051834,32.01439123451892,0 35.52333327502048,32.01403740857673,0 35.52266682564386,32.01421855319028,0 35.52228013115094,32.013813290446,0 35.52296649167021,32.01327925402185,0 35.52300552021291,32.01245128938864,0 35.5235950343743,32.01182716477506,0 35.52414347572777,32.01189923587513,0 35.52474691958883,32.01274400495191,0 35.52457209609707,32.0136007495411,0 35.52512466684325,32.01443763863831,0 35.52550711476862,32.01451268673524,0 35.52619168970337,32.01481723698434,0 35.52722676359431,32.01504407213298,0 35.52707828933227,32.01437803621852,0 35.52711738121867,32.01397020926725,0 35.5273681564163,32.0113914971399,0 35.52706136618445,32.00978229927357,0 35.52798085958974,32.00893728899366,0 35.52885601999091,32.00893380802773,0 35.52870535080732,32.00829132406471,0 35.52837699381175,32.00697485179399,0 35.52654906919526,32.00605351491215,0 35.52570333451151,32.00504775127441,0 35.52577308859464,32.00397744150689,0 35.52661851883973,32.00362730720794,0 35.52640249283886,32.00290817959628,0 35.52577063941628,32.00316096994893,0 35.5253481830877,32.00297541041699,0 35.52629374579587,32.00231763190663,0 35.52678430164715,32.00231541083909,0 35.52694822230907,32.00105101148792,0 35.52826834268635,32.00086155081389,0 35.52901638642862,31.99997567220957,0 35.53008439953697,31.99975912746357,0 35.53072291622267,32.00033238129742,0 35.53059828742504,32.00085118674586,0 35.53085385858671,32.0012788647209,0 35.53148005794242,32.00124536928995,0 35.53224868193675,32.00032563006867,0 35.53190986787816,31.99953973959897,0 35.53144750263598,31.99912033983478,0 35.53176713859715,31.99837084630632,0 35.53263336054669,31.99857600188621,0 35.53333921981567,31.99902203750244,0 35.5339075067785,32.00019675110965,0 35.53358929479543,32.00086841459521,0 35.53293114111929,32.00093251160822,0 35.5325970131233,32.0013017465163,0 35.53272239171243,32.00185533393731,0 35.53398142116828,32.00188051158964,0 35.53537766264946,32.00116654117004,0 35.53582793484155,31.99982458377596,0 35.53553386237367,31.9988326127127,0 35.53469496355644,31.99785280586213,0 35.5360331718979,31.99728528405124,0 35.53755105608324,31.99645680825159,0 35.53864423618666,31.99604378507719,0 35.53897287710266,31.9949424473076,0 35.53827587251757,31.99411415849585,0 35.53702479011024,31.99397667751983,0 35.53644132574456,31.99318434088453,0 35.53549039962843,31.99290590543464,0 35.53519618084655,31.99240510658378,0 35.53587274797659,31.99165039035347,0 35.53723471449393,31.99154611343484,0 35.53657205940024,31.99032106354959,0 35.5347804110751,31.98864059470388,0 35.53706859063708,31.98799969822822,0 35.53648408433249,31.98650594583564,0 35.53343879391447,31.98692308939102,0 35.53301997300444,31.9863362646275,0 35.53351041413897,31.98556459015259,0 35.53448485766125,31.98531522475849,0 35.53572923344931,31.98451766716818,0 35.53631772500739,31.98185102425548,0 35.53812690820251,31.98023239850476,0 35.54004539688994,31.97981853119173,0 35.54156809019499,31.97817742827347,0 35.54222667826225,31.97639962086435,0 35.54118829344424,31.97618068077628,0 35.5408970020903,31.97637702217525,0 35.54015501228365,31.97604561327502,0 35.53956750575786,31.97635441290441,0 35.53959113207454,31.97496912940545,0 35.54065624412228,31.97524038984923,0 35.54026176047295,31.97433605861878,0 35.54005545365079,31.97406404256089,0 35.54074917308473,31.97335832765085,0 35.54117583929649,31.97369690208434,0 35.54183886018322,31.97360084548161,0 35.54188910482809,31.97422213935148,0 35.54252615634444,31.97440636575821,0 35.54254050506867,31.97365957599024,0 35.54354338854682,31.97328365300472,0 35.54408039582113,31.97266543488516,0 35.54413087223707,31.97117246052681,0 35.54488239348075,31.97008650792409,0 35.54623482702284,31.96960317853495,0 35.54659809460861,31.97001911252944,0 35.54619277644358,31.97017045992302,0 35.54644656317471,31.97116205304395,0 35.54711500721741,31.97207015621041,0 35.54793801427194,31.97188352510778,0 35.54807910177092,31.97130596791159,0 35.54782195206851,31.97040295075037,0 35.54804015308532,31.96938712680718,0 35.54832085415659,31.96832261988723,0 35.54758167971637,31.96788615299605,0 35.54656783745293,31.96800758226044,0 35.54583100225506,31.96751419177997,0 35.5456562744147,31.96664474585751,0 35.54414755455262,31.96604651807492,0 35.54278914608938,31.96567976348406,0 35.54331443397042,31.96428661509859,0 35.54500349685296,31.96318693689803,0 35.54550376654221,31.96177451644108,0 35.54617736487199,31.96073445342536,0 35.54561316433654,31.96057386725466,0 35.5448639829553,31.96065811391719,0 35.54396548922772,31.96115121114342,0 35.54224229753107,31.96058683946711,0 35.54185245702163,31.96008578917542,0 35.54218324607774,31.95718222992149,0 35.54129711851361,31.95624755054274,0 35.54237809543903,31.95555953570149,0 35.54400780379199,31.9529262197088,0 35.54137409585074,31.95102764683992,0 35.54174220658565,31.94993830015196,0 35.54305496588977,31.94900164061928,0 35.54304073267696,31.94799346015286,0 35.54195848161688,31.94739797032533,0 35.54314387935123,31.94586724750523,0 35.54397390606972,31.94403145579316,0 35.54382572495575,31.94315610811449,0 35.5429408259423,31.94324131238303,0 35.54136686522089,31.94363000812637,0 35.54080514953426,31.94275987124532,0 35.54370473949923,31.94191146014767,0 35.54403416296822,31.94121461278939,0 35.54366519686101,31.94030400468032,0 35.54328105814815,31.94049391573163,0 35.5409142423773,31.93848549033682,0 35.54135442232119,31.93620263178241,0 35.54322407972601,31.93673689851712,0 35.54481164364532,31.93663912761462,0 35.54586594617733,31.93606234204944,0 35.54519880623009,31.93555625257765,0 35.54461392683579,31.93398832676764,0 35.54304191591713,31.93370156763337,0 35.54178444053029,31.9339417743268,0 35.54127051737864,31.93344569860585,0 35.54143500004235,31.93257180678496,0 35.54052025296674,31.93199782101114,0 35.53977663121844,31.93252086197467,0 35.54008078552784,31.93312968184088,0 35.5397054218298,31.93389196826041,0 35.5386191080423,31.93336933575324,0 35.53919831292946,31.93310429040528,0 35.53883395602538,31.93183215861379,0 35.53759768313394,31.93097827918255,0 35.53550951876336,31.92996263163608,0 35.53586054490652,31.9264850378426,0 35.5365044658575,31.92489572057969,0 35.53590462822135,31.9244058826632,0 35.5351047459171,31.92456319093843,0 35.53430484673743,31.92499840397388,0 35.53304756577818,31.92454177386636,0 35.53193172595333,31.92454683236869,0 35.52986009885127,31.92336368667695,0 35.52867247619992,31.9237344123739,0 35.52729375287336,31.923375083931,0 35.52659247089379,31.92250741781743,0 35.5272624668499,31.91804147036361,0 35.5281841277571,31.91778804187902,0 35.52813664603399,31.91710617688796,0 35.52772246593381,31.91695368134041,0 35.52788780977255,31.91621519461255,0 35.52743520294627,31.91621722751204,0 35.52712238414151,31.91530399132373,0 35.52788191037552,31.91439434146695,0 35.52738134746703,31.9139464517579,0 35.5265526689342,31.91400994187113,0 35.52635043045733,31.91152593552278,0 35.52540896824457,31.90990747103584,0 35.52538468357809,31.90834008824543,0 35.52468580031713,31.90789444016707,0 35.52443776397896,31.90677731940568,0 35.5259615863782,31.9067714604388,0 35.52680708374753,31.90615886657531,0 35.5260309989656,31.90539187134315,0 35.52576300194433,31.90354860419311,0 35.52513549810379,31.90304194887767,0 35.52537901456511,31.90216364401651,0 35.52603251376021,31.90247941419615,0 35.52646961567207,31.90314402894062,0 35.52702196018504,31.90314202135033,0 35.52834967382064,31.90207367796568,0 35.52819728872475,31.90138938093627,0 35.52740006991469,31.90055614836999,0 35.52780196916131,31.8991136569577,0 35.52938483915747,31.89869141338524,0 35.53098534186375,31.89881133857175,0 35.53138834778081,31.89833239691888,0 35.53000438973557,31.89735991404738,0 35.53037763798857,31.89620203820781,0 35.53105558399852,31.8964789581356,0 35.53166057831938,31.89738370205769,0 35.53335736106259,31.89566178007163,0 35.53265927610325,31.89566493604822,0 35.53174985592049,31.89493005722816,0 35.53119523322984,31.89350091766818,0 35.53039306376471,31.89332313601001,0 35.53049013297198,31.8923912442839,0 35.53152479652745,31.8924765312009,0 35.5322276552255,31.89277324896499,0 35.53233639166221,31.8935261551089,0 35.53419804968715,31.8945822522336,0 35.53491695319948,31.89442631328089,0 35.53463102242026,31.89375832428576,0 35.53363696464692,31.89160325165584,0 35.5301243595656,31.89105607926252,0 35.53046987685324,31.88961945204257,0 35.53114375725572,31.88814503814288,0 35.53217297872889,31.88728555575059,0 35.53192900142181,31.88646688294295,0 35.53302652333454,31.88643438035134,0 35.53395478444062,31.88584171392895,0 35.5359318370752,31.88563838689716,0 35.5360229308322,31.88508165052367,0 35.53475447292067,31.88442317605372,0 35.5332352479066,31.88382487948517,0 35.53303942480881,31.8828013610564,0 35.53347701159397,31.88164306502842,0 35.53403048395977,31.88235767489632,0 35.53551010907794,31.88119966126143,0 35.53794884098278,31.8803874796815,0 35.53905739024321,31.88004549891501,0 35.53894294547892,31.8793451668697,0 35.5396484452103,31.87816479572735,0 35.53892402498953,31.87804803922628,0 35.5397315300036,31.87709004904401,0 35.53915433451908,31.87524006858836,0 35.53955960619717,31.87515100567098,0 35.53944320793205,31.87431116511567,0 35.54408107797288,31.87551074963522,0 35.54489681313534,31.87553646218098,0 35.54554412734717,31.87419904422344,0 35.54679778039958,31.87310495287004,0 35.54800932393899,31.87318541675601,0 35.54742453175086,31.87407592223127,0 35.54845409019635,31.87417419991951,0 35.54985142186823,31.87285937793597,0 35.54580135713476,31.87158548472345,0 35.54506913390641,31.87063086869817,0 35.54633533564141,31.86873795949005,0 35.54774124308781,31.86780211629288,0 35.54708250626328,31.86641256073636,0 35.54847019979717,31.86648998169571,0 35.54896122647986,31.86555206516679,0 35.54709031634341,31.86482260753226,0 35.54483509483087,31.86644914560489,0 35.54471487994816,31.86576074034548,0 35.54699585286231,31.86411881938195,0 35.54612076404736,31.86350358878782,0 35.54473247664792,31.8647502097154,0 35.54368974490369,31.86451004450878,0 35.54332140162499,31.8635409766975,0 35.5445799700556,31.86236364351831,0 35.54264790446145,31.86095135851986,0 35.54306221387245,31.86008285559308,0 35.5421677265496,31.85888801296131,0 35.54089513696023,31.86092191830824,0 35.53979139669932,31.86083126488098,0 35.54031289931587,31.85921094688422,0 35.53983164301498,31.85833581502499,0 35.5383964508905,31.85849863411226,0 35.53852621880841,31.85796815376013,0 35.53991331429872,31.85746559077517,0 35.53857535095906,31.85694723087683,0 35.53686403622558,31.85661706814939,0 35.53674815338147,31.85561044777287,0 35.53746630903456,31.85503195977175,0 35.5385360383394,31.85502720139838,0 35.53930610018117,31.85406246783149,0 35.54173445888553,31.85474167479727,0 35.54236253841258,31.8540789071096,0 35.54074630728564,31.85292667938141,0 35.54048296865734,31.85213309909722,0 35.53922431571051,31.85210917278243,0 35.53920447018368,31.85129202938982,0 35.5412646752463,31.85018518795169,0 35.5428275260865,31.85052407063464,0 35.54318021348353,31.85011974066598,0 35.54117242376019,31.84850483289151,0 35.54239863698805,31.84830237252151,0 35.54378481121829,31.8494020012096,0 35.54499755836508,31.84829178483599,0 35.54615834551876,31.84820255416989,0 35.54669594671633,31.84671995650584,0 35.54466565243435,31.84645126873077,0 35.54364302505084,31.84714888290894,0 35.5429265061201,31.84667956406005,0 35.54388228319046,31.84530047149155,0 35.54678570043966,31.84455479733023,0 35.54820595350596,31.8438744626575,0 35.54891199242069,31.84416805218022,0 35.54849557413682,31.84296331677017,0 35.54739565847421,31.84251574446244,0 35.54681342502365,31.84299634302168,0 35.54479027328118,31.84273787236962,0 35.54490122380055,31.84126108504098,0 35.54618991001375,31.84133484459649,0 35.54750767417522,31.84044431651433,0 35.54703392706843,31.84005798039395,0 35.54685442735249,31.83916555405348,0 35.54767163305164,31.83843994944692,0 35.54726896874258,31.83717513036989,0 35.54665325231933,31.83701684317058,0 35.54627632378595,31.83605617861428,0 35.54768825062096,31.83649737751405,0 35.54924668197856,31.83642570475398,0 35.54912079274072,31.83518403381774,0 35.54687943014936,31.83434337712042,0 35.5468796860788,31.83321925204747,0 35.54651617543806,31.83241678212099,0 35.54640901271873,31.83122297931357,0 35.5470569820291,31.8310679557386,0 35.54700671764125,31.83028106979118,0 35.54485524767816,31.83065326512252,0 35.54467935337738,31.82993025421974,0 35.54628498917487,31.82974298557939,0 35.54776006565375,31.82919808199608,0 35.54693584621494,31.82704802264684,0 35.54816939290669,31.82533614591622,0 35.54866750883505,31.82345998759825,0 35.5470226359357,31.82324200033184,0 35.54504805472484,31.82241188477412,0 35.54474142130821,31.82285922312527,0 35.54297188048504,31.82261513472274,0 35.54287637866972,31.8212317589841,0 35.54222479797347,31.81981621157319,0 35.54027599995133,31.81912243674488,0 35.54032817857899,31.8187200509086,0 35.54094311593534,31.81866425051517,0 35.54166336588511,31.81882211010233,0 35.54295789651488,31.81801720197187,0 35.5434248267762,31.81830799820895,0 35.54437371887869,31.81669369428965,0 35.54403645037788,31.81642300738368,0 35.54467308871683,31.81557826560852,0 35.54338827112672,31.81395335708797,0 35.54446942500759,31.81366304628819,0 35.54376530596052,31.81147543245094,0 35.54266475179949,31.81104795084546,0 35.54362009783357,31.80987881082304,0 35.54322571571154,31.80806872076313,0 35.54311053760037,31.80628989550458,0 35.54304295543071,31.80480268549292,0 35.54477832029805,31.80381623105633,0 35.54658100609947,31.80157146909287,0 35.54724597810547,31.79951210783992,0 35.55139699686527,31.79677351840502,0 35.55062433520981,31.79423391383588,0 35.55038234134527,31.79294151622485,0 35.55167330171809,31.79080979434764,0 35.55019462217926,31.7888639083179,0 35.54937726115661,31.78649068217311,0 35.54741956928883,31.78378108178862,0 35.54823944484862,31.78077938880976,0 35.55058737123451,31.77651438060272,0 35.55195178951978,31.77382492952333,0 35.55551732575637,31.77238806798065,0 35.55581771187779,31.76987967997991,0 35.55407244044721,31.76860261064675,0 35.55296406589353,31.76830094780403,0 35.55290256580043,31.76722690922574,0 35.55456069262743,31.7663206867311,0 35.55653090316513,31.76647356838197,0 35.55705081849908,31.76576231973617,0 35.55792158040816,31.7656678419534,0 35.55802480112976,31.76498793391627,0 35.55857247917677,31.76355550629979,0 35.55910232120505,31.76233877736681,0 35.55819967927375,31.76193981007931,0 35.55871174878081,31.76059149084382,0 35.56051806091283,31.75913716991585,0 
			</coordinates>
		</LineString>
	</Placemark>
</Document>
</kml>
